<?xml version="1.0" encoding="utf-8"?>
<svg xmlns="http://www.w3.org/2000/svg" viewBox="0 0 24 24" fill="#000000" width="24" height="24">
    <path d="M 10 5.9296875 L 8.5 7.4296875 L 13.070312 12 L 8.5 16.570312 L 10 18.070312 L 16.070312 12 L 10 5.9296875 z" fill="#000000"/>
</svg>
